{
    "id":"patient4",
    "gender": "female",
    "name":[ 
        {
        "use": "John",
        "family": "Jovanovic",
        "given": [ 
            "Aaliyah"
             ]
      } 
      ],
      "address":[
          {
              "use":"home",
              "type":"both",
              "text":"634 Egfyt St jghuhi, VHgu",
              "city":"city",
              "district":"Rainbow",
              "state":"state",
              "postalCode":"2332",
              "period":{
                  "start":"1974-12-25"
              }
          }
      ],
      "telecom":[
          {
          "system":"phone", 
           "value":"(03) 6453 5678",
           "use":"work",
           "rank":"1"
           }
    ]
}